module github.com/marcelosousa/dev-fest-demo

go 1.20

require (
	github.com/reviewpad/go-conventionalcommits v0.10.0
	github.com/spf13/cobra v1.6.1
)

require (
	github.com/inconshreveable/mousetrap v1.0.1 // indirect
	github.com/sirupsen/logrus v1.9.0 // indirect
	github.com/spf13/pflag v1.0.5 // indirect
	golang.org/x/sys v0.0.0-20220722155257-8c9f86f7a55f // indirect
)
